Mar 18, 2014 9:30:47 PM l1j.server.Config load
INFO: loading gameserver config
Mar 18, 2014 9:30:49 PM l1j.server.server.IdFactory loadState
INFO: 目前的物件ID: 269315896
Mar 18, 2014 9:31:13 PM l1j.server.server.ClientThread run
INFO: (10.0.0.6) 連結到伺服器。
Mar 18, 2014 9:31:15 PM l1j.server.server.ClientThread run
INFO: (null:10.0.0.6)連線終止。
Mar 18, 2014 9:31:24 PM l1j.server.server.ClientThread run
INFO: (10.0.0.6) 連結到伺服器。
Mar 18, 2014 9:31:29 PM l1j.server.server.clientpackets.C_LoginToServer <init>
INFO: 角色登入到伺服器中: char=As account=1 host=10.0.0.6
Mar 18, 2014 9:31:39 PM l1j.server.server.ClientThread run
INFO: (1:10.0.0.6)連線終止。
Mar 18, 2014 9:37:55 PM l1j.server.server.ClientThread run
INFO: (10.0.0.6) 連結到伺服器。
Mar 18, 2014 9:37:58 PM l1j.server.server.ClientThread run
INFO: (null:10.0.0.6)連線終止。
Mar 18, 2014 9:38:03 PM l1j.server.server.ClientThread run
INFO: (10.0.0.6) 連結到伺服器。
Mar 18, 2014 9:38:07 PM l1j.server.server.clientpackets.C_LoginToServer <init>
INFO: 角色登入到伺服器中: char=As account=1 host=10.0.0.6
Mar 18, 2014 9:38:19 PM l1j.server.server.ClientThread run
INFO: (1:10.0.0.6)連線終止。
Mar 18, 2014 9:41:22 PM l1j.server.server.ClientThread run
INFO: (10.0.0.7) 連結到伺服器。
Mar 18, 2014 9:41:24 PM l1j.server.server.ClientThread run
INFO: (null:10.0.0.7)連線終止。
Mar 18, 2014 9:41:32 PM l1j.server.server.ClientThread run
INFO: (10.0.0.7) 連結到伺服器。
Mar 18, 2014 9:41:34 PM l1j.server.server.clientpackets.C_LoginToServer <init>
INFO: 角色登入到伺服器中: char=As account=1 host=10.0.0.7
Mar 18, 2014 9:45:58 PM l1j.server.server.ClientThread run
INFO: (1:10.0.0.7)連線終止。
Mar 18, 2014 9:46:07 PM l1j.server.server.ClientThread run
INFO: (10.0.0.7) 連結到伺服器。
Mar 18, 2014 9:46:09 PM l1j.server.server.ClientThread run
INFO: (null:10.0.0.7)連線終止。
Mar 18, 2014 9:46:17 PM l1j.server.server.ClientThread run
INFO: (10.0.0.7) 連結到伺服器。
Mar 18, 2014 9:46:21 PM l1j.server.server.clientpackets.C_LoginToServer <init>
INFO: 角色登入到伺服器中: char=As account=1 host=10.0.0.7
Mar 18, 2014 9:46:35 PM l1j.server.server.GMCommands executeDatabaseCommand
INFO: As使用 .allbuff as的指令。
Mar 18, 2014 9:46:45 PM l1j.server.server.ClientThread run
INFO: (1:10.0.0.7)連線終止。
