Mar 20, 2014 9:26:23 PM l1j.server.Config load
INFO: loading gameserver config
Mar 20, 2014 9:26:24 PM l1j.server.server.IdFactory loadState
INFO: 目前的物件ID: 269315896
Mar 20, 2014 9:26:59 PM l1j.server.server.ClientThread run
INFO: (10.0.0.7) 連結到伺服器。
Mar 20, 2014 9:27:01 PM l1j.server.server.ClientThread run
INFO: (null:10.0.0.7)連線終止。
Mar 20, 2014 9:27:11 PM l1j.server.server.ClientThread run
INFO: (10.0.0.7) 連結到伺服器。
Mar 20, 2014 9:27:20 PM l1j.server.server.clientpackets.C_LoginToServer <init>
INFO: 角色登入到伺服器中: char=As account=1 host=10.0.0.7
Mar 20, 2014 9:27:40 PM l1j.server.server.ClientThread run
INFO: (1:10.0.0.7)連線終止。
Mar 20, 2014 9:28:31 PM l1j.server.server.ClientThread run
INFO: (10.0.0.7) 連結到伺服器。
Mar 20, 2014 9:28:33 PM l1j.server.server.ClientThread run
INFO: (null:10.0.0.7)連線終止。
Mar 20, 2014 9:28:40 PM l1j.server.server.ClientThread run
INFO: (10.0.0.7) 連結到伺服器。
Mar 20, 2014 9:28:44 PM l1j.server.server.clientpackets.C_LoginToServer <init>
INFO: 角色登入到伺服器中: char=As account=1 host=10.0.0.7
Mar 20, 2014 9:29:58 PM l1j.server.server.ClientThread run
INFO: (1:10.0.0.7)連線終止。
Mar 20, 2014 9:30:58 PM l1j.server.server.ClientThread run
INFO: (10.0.0.7) 連結到伺服器。
Mar 20, 2014 9:31:00 PM l1j.server.server.ClientThread run
INFO: (null:10.0.0.7)連線終止。
Mar 20, 2014 9:31:07 PM l1j.server.server.ClientThread run
INFO: (10.0.0.7) 連結到伺服器。
Mar 20, 2014 9:31:13 PM l1j.server.server.clientpackets.C_LoginToServer <init>
INFO: 角色登入到伺服器中: char=As account=1 host=10.0.0.7
Mar 20, 2014 9:37:24 PM l1j.server.server.ClientThread run
INFO: (1:10.0.0.7)連線終止。
