Mar 20, 2014 9:37:45 PM l1j.server.Config load
INFO: loading gameserver config
Mar 20, 2014 9:37:46 PM l1j.server.server.IdFactory loadState
INFO: 目前的物件ID: 269315896
Mar 20, 2014 9:37:47 PM l1j.server.server.ClientThread run
INFO: (10.0.0.7) 連結到伺服器。
Mar 20, 2014 9:37:50 PM l1j.server.server.ClientThread run
INFO: (null:10.0.0.7)連線終止。
Mar 20, 2014 9:38:13 PM l1j.server.server.ClientThread run
INFO: (10.0.0.7) 連結到伺服器。
Mar 20, 2014 9:38:22 PM l1j.server.server.clientpackets.C_LoginToServer <init>
INFO: 角色登入到伺服器中: char=As account=1 host=10.0.0.7
Mar 20, 2014 9:38:35 PM l1j.server.server.ClientThread run
INFO: (1:10.0.0.7)連線終止。
Mar 20, 2014 9:58:39 PM l1j.server.server.ClientThread run
INFO: (10.0.0.7) 連結到伺服器。
Mar 20, 2014 9:58:41 PM l1j.server.server.ClientThread run
INFO: (null:10.0.0.7)連線終止。
Mar 20, 2014 9:58:48 PM l1j.server.server.ClientThread run
INFO: (10.0.0.7) 連結到伺服器。
Mar 20, 2014 9:58:51 PM l1j.server.server.clientpackets.C_LoginToServer <init>
INFO: 角色登入到伺服器中: char=As account=1 host=10.0.0.7
Mar 20, 2014 10:04:22 PM l1j.server.server.ClientThread run
INFO: (1:10.0.0.7)連線終止。
Mar 20, 2014 10:04:34 PM l1j.server.server.ClientThread run
INFO: (10.0.0.7) 連結到伺服器。
Mar 20, 2014 10:04:36 PM l1j.server.server.ClientThread run
INFO: (null:10.0.0.7)連線終止。
Mar 20, 2014 10:04:42 PM l1j.server.server.ClientThread run
INFO: (10.0.0.7) 連結到伺服器。
Mar 20, 2014 10:04:45 PM l1j.server.server.clientpackets.C_LoginToServer <init>
INFO: 角色登入到伺服器中: char=Qw account=1 host=10.0.0.7
Mar 20, 2014 10:15:44 PM l1j.server.server.ClientThread run
INFO: (1:10.0.0.7)連線終止。
Mar 20, 2014 10:15:52 PM l1j.server.server.ClientThread run
INFO: (10.0.0.7) 連結到伺服器。
Mar 20, 2014 10:15:55 PM l1j.server.server.ClientThread run
INFO: (null:10.0.0.7)連線終止。
Mar 20, 2014 10:16:02 PM l1j.server.server.ClientThread run
INFO: (10.0.0.7) 連結到伺服器。
Mar 20, 2014 10:16:05 PM l1j.server.server.clientpackets.C_LoginToServer <init>
INFO: 角色登入到伺服器中: char=As account=1 host=10.0.0.7
Mar 20, 2014 10:16:11 PM l1j.server.server.ClientThread run
INFO: (1:10.0.0.7)連線終止。
Mar 20, 2014 10:16:38 PM l1j.server.server.ClientThread run
INFO: (10.0.0.7) 連結到伺服器。
Mar 20, 2014 10:16:40 PM l1j.server.server.ClientThread run
INFO: (null:10.0.0.7)連線終止。
Mar 20, 2014 10:16:46 PM l1j.server.server.ClientThread run
INFO: (10.0.0.7) 連結到伺服器。
Mar 20, 2014 10:16:49 PM l1j.server.server.clientpackets.C_LoginToServer <init>
INFO: 角色登入到伺服器中: char=As account=1 host=10.0.0.7
Mar 20, 2014 10:18:13 PM l1j.server.server.ClientThread run
INFO: (1:10.0.0.7)連線終止。
Mar 20, 2014 10:18:23 PM l1j.server.server.ClientThread run
INFO: (10.0.0.7) 連結到伺服器。
Mar 20, 2014 10:18:25 PM l1j.server.server.ClientThread run
INFO: (null:10.0.0.7)連線終止。
Mar 20, 2014 10:18:31 PM l1j.server.server.ClientThread run
INFO: (10.0.0.7) 連結到伺服器。
Mar 20, 2014 10:18:34 PM l1j.server.server.clientpackets.C_LoginToServer <init>
INFO: 角色登入到伺服器中: char=As account=1 host=10.0.0.7
Mar 20, 2014 10:19:14 PM l1j.server.server.ClientThread run
INFO: (1:10.0.0.7)連線終止。
