Mar 16, 2014 11:14:11 PM l1j.server.Config load
INFO: loading gameserver config
Mar 16, 2014 11:14:12 PM l1j.server.server.IdFactory loadState
INFO: 目前的物件ID: 269315896
Mar 16, 2014 11:14:14 PM l1j.server.server.ClientThread run
INFO: (10.0.0.9) 連結到伺服器。
Mar 16, 2014 11:14:16 PM l1j.server.server.ClientThread run
INFO: (null:10.0.0.9)連線終止。
Mar 16, 2014 11:14:21 PM l1j.server.server.ClientThread run
INFO: (10.0.0.9) 連結到伺服器。
Mar 16, 2014 11:14:25 PM l1j.server.server.clientpackets.C_LoginToServer <init>
INFO: 角色登入到伺服器中: char=As account=1 host=10.0.0.9
Mar 16, 2014 11:17:30 PM l1j.server.server.ClientThread run
INFO: (1:10.0.0.9)連線終止。
